{
  "iisSettings": {
    "windowsAuthentication": false,
    "anonymousAuthentication": true,
    "iisExpress": {
      "applicationUrl": "http://localhost:2179",
      "sslPort": 44335
    }
  },
  "profiles": {
    "http": {
      "commandName": "Project",
      "applicationUrl": "http://localhost:5282",
      "environmentVariables": {
        "ASPNETCORE_ENVIRONMENT": "Development"
      },
      "dotnetRunMessages": true
    },
    "IIS Express": {
      "commandName": "IISExpress",
      "launchBrowser": true,
      "environmentVariables": {
        "ASPNETCORE_ENVIRONMENT": "Development"
      }
    },
    "https": {
      "commandName": "Project",
      "launchBrowser": true,
      "launchUrl": "api/user",
      "applicationUrl": "http://localhost:8000;http://localhost:5282",
      "environmentVariables": {
        "ASPNETCORE_ENVIRONMENT": "Development"
      },
      "dotnetRunMessages": true
    }
  }
}